waveform/sync_fifo.vcd
$date
	Sat Jul 18 21:17:31 2026
$end
$version
	Icarus Verilog
$end
$timescale
	1ps
$end
$scope module tb_sync_fifo $end
$var wire 1 ! full $end
$var wire 5 " fifo_count [4:0] $end
$var wire 1 # empty $end
$var wire 8 $ dout [7:0] $end
$var parameter 32 % DEPTH $end
$var parameter 32 & WIDTH $end
$var reg 1 ' clk $end
$var reg 8 ( din [7:0] $end
$var reg 1 ) rd_en $end
$var reg 1 * rst_n $end
$var reg 1 + wr_en $end
$var integer 32 , fail_count [31:0] $end
$var integer 32 - num_transactions [31:0] $end
$var integer 32 . pass_count [31:0] $end
$scope module dut $end
$var wire 1 ' clk $end
$var wire 8 / din [7:0] $end
$var wire 1 ! full $end
$var wire 1 ) rd_en $end
$var wire 1 * rst_n $end
$var wire 1 + wr_en $end
$var wire 5 0 fifo_count [4:0] $end
$var wire 1 # empty $end
$var parameter 32 1 DEPTH $end
$var parameter 32 2 PTR_W $end
$var parameter 32 3 WIDTH $end
$var reg 8 4 dout [7:0] $end
$var reg 5 5 rd_ptr [4:0] $end
$var reg 5 6 wr_ptr [4:0] $end
$upscope $end
$scope begin $ivl_for_loop0 $end
$var integer 32 7 i [31:0] $end
$upscope $end
$scope begin $ivl_for_loop1 $end
$var integer 32 8 i [31:0] $end
$upscope $end
$scope begin $ivl_for_loop2 $end
$var integer 32 9 i [31:0] $end
$upscope $end
$scope task do_read $end
$scope begin $unm_blk_12 $end
$upscope $end
$upscope $end
$scope task do_write $end
$upscope $end
$scope task reset_dut $end
$upscope $end
$upscope $end
$enddefinitions $end
$comment Show the parameter values. $end
$dumpall
b1000 3
b100 2
b10000 1
b1000 &
b10000 %
$end
#0
$dumpvars
b0 9
b0 8
b0 7
b0 6
b0 5
b0 4
b0 0
b0 /
b0 .
b111110100 -
b0 ,
0+
0*
0)
b0 (
0'
b0 $
1#
b0 "
0!
$end
#5000
1'
#10000
0'
#15000
1'
#20000
0'
#25000
1*
1'
#30000
0'
#35000
1'
#40000
0'
#45000
0#
b1 "
b1 0
b1 6
1+
1'
#50000
0'
#55000
b1 7
0+
1'
#60000
0'
#65000
b10 "
b10 0
b10 6
b1 (
b1 /
1+
1'
#70000
0'
#75000
b10 7
0+
1'
#80000
0'
#85000
b11 "
b11 0
b11 6
b10 (
b10 /
1+
1'
#90000
0'
#95000
b11 7
0+
1'
#100000
0'
#105000
b100 "
b100 0
b100 6
b11 (
b11 /
1+
1'
#110000
0'
#115000
b100 7
0+
1'
#120000
0'
#125000
b101 "
b101 0
b101 6
b100 (
b100 /
1+
1'
#130000
0'
#135000
b101 7
0+
1'
#140000
0'
#145000
b110 "
b110 0
b110 6
b101 (
b101 /
1+
1'
#150000
0'
#155000
b110 7
0+
1'
#160000
0'
#165000
b111 "
b111 0
b111 6
b110 (
b110 /
1+
1'
#170000
0'
#175000
b111 7
0+
1'
#180000
0'
#185000
b1000 "
b1000 0
b1000 6
b111 (
b111 /
1+
1'
#190000
0'
#195000
b1000 7
0+
1'
#200000
0'
#205000
b1001 "
b1001 0
b1001 6
b1000 (
b1000 /
1+
1'
#210000
0'
#215000
b1001 7
0+
1'
#220000
0'
#225000
b1010 "
b1010 0
b1010 6
b1001 (
b1001 /
1+
1'
#230000
0'
#235000
b1010 7
0+
1'
#240000
0'
#245000
b1011 "
b1011 0
b1011 6
b1010 (
b1010 /
1+
1'
#250000
0'
#255000
b1011 7
0+
1'
#260000
0'
#265000
b1100 "
b1100 0
b1100 6
b1011 (
b1011 /
1+
1'
#270000
0'
#275000
b1100 7
0+
1'
#280000
0'
#285000
b1101 "
b1101 0
b1101 6
b1100 (
b1100 /
1+
1'
#290000
0'
#295000
b1101 7
0+
1'
#300000
0'
#305000
b1110 "
b1110 0
b1110 6
b1101 (
b1101 /
1+
1'
#310000
0'
#315000
b1110 7
0+
1'
#320000
0'
#325000
b1111 "
b1111 0
b1111 6
b1110 (
b1110 /
1+
1'
#330000
0'
#335000
b1111 7
0+
1'
#340000
0'
#345000
1!
b10000 "
b10000 0
b10000 6
b1111 (
b1111 /
1+
1'
#350000
0'
#355000
b1 .
b10000 7
0+
1'
#360000
0'
#365000
1'
#370000
0'
#375000
0!
b1111 "
b1111 0
b1 5
1)
1'
#380000
0'
#385000
0)
1'
#386000
b1 8
b10 .
#390000
0'
#395000
b1110 "
b1110 0
b10 5
b1 $
b1 4
1)
1'
#400000
0'
#405000
0)
1'
#406000
b10 8
b11 .
#410000
0'
#415000
b1101 "
b1101 0
b11 5
b10 $
b10 4
1)
1'
#420000
0'
#425000
0)
1'
#426000
b11 8
b100 .
#430000
0'
#435000
b1100 "
b1100 0
b100 5
b11 $
b11 4
1)
1'
#440000
0'
#445000
0)
1'
#446000
b100 8
b101 .
#450000
0'
#455000
b1011 "
b1011 0
b101 5
b100 $
b100 4
1)
1'
#460000
0'
#465000
0)
1'
#466000
b101 8
b110 .
#470000
0'
#475000
b1010 "
b1010 0
b110 5
b101 $
b101 4
1)
1'
#480000
0'
#485000
0)
1'
#486000
b110 8
b111 .
#490000
0'
#495000
b1001 "
b1001 0
b111 5
b110 $
b110 4
1)
1'
#500000
0'
#505000
0)
1'
#506000
b111 8
b1000 .
#510000
0'
#515000
b1000 "
b1000 0
b1000 5
b111 $
b111 4
1)
1'
#520000
0'
#525000
0)
1'
#526000
b1000 8
b1001 .
#530000
0'
#535000
b111 "
b111 0
b1001 5
b1000 $
b1000 4
1)
1'
#540000
0'
#545000
0)
1'
#546000
b1001 8
b1010 .
#550000
0'
#555000
b110 "
b110 0
b1010 5
b1001 $
b1001 4
1)
1'
#560000
0'
#565000
0)
1'
#566000
b1010 8
b1011 .
#570000
0'
#575000
b101 "
b101 0
b1011 5
b1010 $
b1010 4
1)
1'
#580000
0'
#585000
0)
1'
#586000
b1011 8
b1100 .
#590000
0'
#595000
b100 "
b100 0
b1100 5
b1011 $
b1011 4
1)
1'
#600000
0'
#605000
0)
1'
#606000
b1100 8
b1101 .
#610000
0'
#615000
b11 "
b11 0
b1101 5
b1100 $
b1100 4
1)
1'
#620000
0'
#625000
0)
1'
#626000
b1101 8
b1110 .
#630000
0'
#635000
b10 "
b10 0
b1110 5
b1101 $
b1101 4
1)
1'
#640000
0'
#645000
0)
1'
#646000
b1110 8
b1111 .
#650000
0'
#655000
b1 "
b1 0
b1111 5
b1110 $
b1110 4
1)
1'
#660000
0'
#665000
0)
1'
#666000
b1111 8
b10000 .
#670000
0'
#675000
0!
1#
b0 "
b0 0
b10000 5
b1111 $
b1111 4
1)
1'
#680000
0'
#685000
0)
1'
#686000
b10000 8
b10010 .
#690000
0'
#695000
1'
#700000
0'
#705000
0#
b1 "
b1 0
b10001 6
b1000000 (
b1000000 /
1+
1'
#710000
0'
#715000
b1 9
0+
1'
#720000
0'
#725000
1#
b0 "
b0 0
b10001 5
b1000000 $
b1000000 4
1)
1'
#730000
0'
#735000
0)
1'
#736000
b11 9
b10011 .
#740000
0'
#745000
0#
b1 "
b1 0
b10010 6
b11000110 (
b11000110 /
1+
1'
#750000
0'
#755000
b100 9
0+
1'
#760000
0'
#765000
1#
b0 "
b0 0
b10010 5
b11000110 $
b11000110 4
1)
1'
#770000
0'
#775000
0)
1'
#776000
b110 9
b10100 .
#780000
0'
#785000
0#
b1 "
b1 0
b10011 6
b10000110 (
b10000110 /
1+
1'
#790000
0'
#795000
b111 9
0+
1'
#800000
0'
#805000
b10 "
b10 0
b10100 6
b10011110 (
b10011110 /
1+
1'
#810000
0'
#815000
b1000 9
0+
1'
#820000
0'
#825000
b11 "
b11 0
b10101 6
b11000110 (
b11000110 /
1+
1'
#830000
0'
#835000
b1001 9
0+
1'
#840000
0'
#845000
b100 "
b100 0
b10110 6
b1100011 (
b1100011 /
1+
1'
#850000
0'
#855000
b1010 9
0+
1'
#860000
0'
#865000
b11 "
b11 0
b10011 5
b10000110 $
b10000110 4
1)
1'
#870000
0'
#875000
0)
1'
#876000
b1011 9
b10101 .
#880000
0'
#885000
b10 "
b10 0
b10100 5
b10011110 $
b10011110 4
1)
1'
#890000
0'
#895000
0)
1'
#896000
b1100 9
b10110 .
#900000
0'
#905000
b11 "
b11 0
b10111 6
b111011 (
b111011 /
1+
1'
#910000
0'
#915000
b1101 9
0+
1'
#920000
0'
#925000
b10 "
b10 0
b10101 5
b11000110 $
b11000110 4
1)
1'
#930000
0'
#935000
0)
1'
#936000
b1110 9
b10111 .
#940000
0'
#945000
b11 "
b11 0
b11000 6
b11111001 (
b11111001 /
1+
1'
#950000
0'
#955000
b1111 9
0+
1'
#960000
0'
#965000
b10 "
b10 0
b10110 5
b1100011 $
b1100011 4
1)
1'
#970000
0'
#975000
0)
1'
#976000
b10000 9
b11000 .
#980000
0'
#985000
b1 "
b1 0
b10111 5
b111011 $
b111011 4
1)
1'
#990000
0'
#995000
0)
1'
#996000
b10001 9
b11001 .
#1000000
0'
#1005000
1#
b0 "
b0 0
b11000 5
b11111001 $
b11111001 4
1)
1'
#1010000
0'
#1015000
0)
1'
#1016000
b10010 9
b11010 .
#1020000
0'
#1025000
0#
b1 "
b1 0
b11001 6
b1011110 (
b1011110 /
1+
1'
#1030000
0'
#1035000
b10011 9
0+
1'
#1040000
0'
#1045000
1#
b0 "
b0 0
b11001 5
b1011110 $
b1011110 4
1)
1'
#1050000
0'
#1055000
0)
1'
#1056000
b10110 9
b11011 .
#1060000
0'
#1065000
0#
b1 "
b1 0
b11010 6
b1000000 (
b1000000 /
1+
1'
#1070000
0'
#1075000
b10111 9
0+
1'
#1080000
0'
#1085000
b10 "
b10 0
b11011 6
b11010101 (
b11010101 /
1+
1'
#1090000
0'
#1095000
b11000 9
0+
1'
#1100000
0'
#1105000
b1 "
b1 0
b11010 5
b1000000 $
b1000000 4
1)
1'
#1110000
0'
#1115000
0)
1'
#1116000
b11001 9
b11100 .
#1120000
0'
#1125000
1#
b0 "
b0 0
b11011 5
b11010101 $
b11010101 4
1)
1'
#1130000
0'
#1135000
0)
1'
#1136000
b11101 9
b11101 .
#1140000
0'
#1145000
0#
b1 "
b1 0
b11100 6
b1101010 (
b1101010 /
1+
1'
#1150000
0'
#1155000
b11110 9
0+
1'
#1160000
0'
#1165000
1#
b0 "
b0 0
b11100 5
b1101010 $
b1101010 4
1)
1'
#1170000
0'
#1175000
0)
1'
#1176000
b100000 9
b11110 .
#1180000
0'
#1185000
0#
b1 "
b1 0
b11101 6
b1100111 (
b1100111 /
1+
1'
#1190000
0'
#1195000
b100001 9
0+
1'
#1200000
0'
#1205000
b10 "
b10 0
b11110 6
b10000101 (
b10000101 /
1+
1'
#1210000
0'
#1215000
b100010 9
0+
1'
#1220000
0'
#1225000
b1 "
b1 0
b11101 5
b1100111 $
b1100111 4
1)
1'
#1230000
0'
#1235000
0)
1'
#1236000
b100011 9
b11111 .
#1240000
0'
#1245000
1#
b0 "
b0 0
b11110 5
b10000101 $
b10000101 4
1)
1'
#1250000
0'
#1255000
0)
1'
#1256000
b100100 9
b100000 .
#1260000
0'
#1265000
0#
b1 "
b1 0
b11111 6
b11000101 (
b11000101 /
1+
1'
#1270000
0'
#1275000
b100101 9
0+
1'
#1280000
0'
#1285000
b10 "
b10 0
b0 6
b1101100 (
b1101100 /
1+
1'
#1290000
0'
#1295000
b100110 9
0+
1'
#1300000
0'
#1305000
b11 "
b11 0
b1 6
b1000100 (
b1000100 /
1+
1'
#1310000
0'
#1315000
b100111 9
0+
1'
#1320000
0'
#1325000
b100 "
b100 0
b10 6
b11011011 (
b11011011 /
1+
1'
#1330000
0'
#1335000
b101000 9
0+
1'
#1340000
0'
#1345000
b101 "
b101 0
b11 6
b11010111 (
b11010111 /
1+
1'
#1350000
0'
#1355000
b101001 9
0+
1'
#1360000
0'
#1365000
b100 "
b100 0
b11111 5
b11000101 $
b11000101 4
1)
1'
#1370000
0'
#1375000
0)
1'
#1376000
b101010 9
b100001 .
#1380000
0'
#1385000
b101 "
b101 0
b100 6
b101 (
b101 /
1+
1'
#1390000
0'
#1395000
b101011 9
0+
1'
#1400000
0'
#1405000
b100 "
b100 0
b0 5
b1101100 $
b1101100 4
1)
1'
#1410000
0'
#1415000
0)
1'
#1416000
b101100 9
b100010 .
#1420000
0'
#1425000
b101 "
b101 0
b101 6
b10100111 (
b10100111 /
1+
1'
#1430000
0'
#1435000
b101101 9
0+
1'
#1440000
0'
#1445000
b100 "
b100 0
b1 5
b1000100 $
b1000100 4
1)
1'
#1450000
0'
#1455000
0)
1'
#1456000
b101110 9
b100011 .
#1460000
0'
#1465000
b101 "
b101 0
b110 6
b111111 (
b111111 /
1+
1'
#1470000
0'
#1475000
b101111 9
0+
1'
#1480000
0'
#1485000
b110 "
b110 0
b111 6
b11111000 (
b11111000 /
1+
1'
#1490000
0'
#1495000
b110000 9
0+
1'
#1500000
0'
#1505000
b111 "
b111 0
b1000 6
b10110001 (
b10110001 /
1+
1'
#1510000
0'
#1515000
b110001 9
0+
1'
#1520000
0'
#1525000
b1000 "
b1000 0
b1001 6
b11001111 (
b11001111 /
1+
1'
#1530000
0'
#1535000
b110010 9
0+
1'
#1540000
0'
#1545000
b1001 "
b1001 0
b1010 6
b11111100 (
b11111100 /
1+
1'
#1550000
0'
#1555000
b110011 9
0+
1'
#1560000
0'
#1565000
b1000 "
b1000 0
b10 5
b11011011 $
b11011011 4
1)
1'
#1570000
0'
#1575000
0)
1'
#1576000
b110100 9
b100100 .
#1580000
0'
#1585000
b111 "
b111 0
b11 5
b11010111 $
b11010111 4
1)
1'
#1590000
0'
#1595000
0)
1'
#1596000
b110101 9
b100101 .
#1600000
0'
#1605000
b110 "
b110 0
b100 5
b101 $
b101 4
1)
1'
#1610000
0'
#1615000
0)
1'
#1616000
b110110 9
b100110 .
#1620000
0'
#1625000
b101 "
b101 0
b101 5
b10100111 $
b10100111 4
1)
1'
#1630000
0'
#1635000
0)
1'
#1636000
b110111 9
b100111 .
#1640000
0'
#1645000
b110 "
b110 0
b1011 6
b100100 (
b100100 /
1+
1'
#1650000
0'
#1655000
b111000 9
0+
1'
#1660000
0'
#1665000
b101 "
b101 0
b110 5
b111111 $
b111111 4
1)
1'
#1670000
0'
#1675000
0)
1'
#1676000
b111001 9
b101000 .
#1680000
0'
#1685000
b100 "
b100 0
b111 5
b11111000 $
b11111000 4
1)
1'
#1690000
0'
#1695000
0)
1'
#1696000
b111010 9
b101001 .
#1700000
0'
#1705000
b11 "
b11 0
b1000 5
b10110001 $
b10110001 4
1)
1'
#1710000
0'
#1715000
0)
1'
#1716000
b111011 9
b101010 .
#1720000
0'
#1725000
b100 "
b100 0
b1100 6
b10000110 (
b10000110 /
1+
1'
#1730000
0'
#1735000
b111100 9
0+
1'
#1740000
0'
#1745000
b11 "
b11 0
b1001 5
b11001111 $
b11001111 4
1)
1'
#1750000
0'
#1755000
0)
1'
#1756000
b111101 9
b101011 .
#1760000
0'
#1765000
b100 "
b100 0
b1101 6
b111011 (
b111011 /
1+
1'
#1770000
0'
#1775000
b111110 9
0+
1'
#1780000
0'
#1785000
b101 "
b101 0
b1110 6
b10001001 (
b10001001 /
1+
1'
#1790000
0'
#1795000
b111111 9
0+
1'
#1800000
0'
#1805000
b100 "
b100 0
b1010 5
b11111100 $
b11111100 4
1)
1'
#1810000
0'
#1815000
0)
1'
#1816000
b1000000 9
b101100 .
#1820000
0'
#1825000
b101 "
b101 0
b1111 6
b10011100 (
b10011100 /
1+
1'
#1830000
0'
#1835000
b1000001 9
0+
1'
#1840000
0'
#1845000
b110 "
b110 0
b10000 6
b1101001 (
b1101001 /
1+
1'
#1850000
0'
#1855000
b1000010 9
0+
1'
#1860000
0'
#1865000
b111 "
b111 0
b10001 6
b111100 (
b111100 /
1+
1'
#1870000
0'
#1875000
b1000011 9
0+
1'
#1880000
0'
#1885000
b1000 "
b1000 0
b10010 6
b10100100 (
b10100100 /
1+
1'
#1890000
0'
#1895000
b1000100 9
0+
1'
#1900000
0'
#1905000
b111 "
b111 0
b1011 5
b100100 $
b100100 4
1)
1'
#1910000
0'
#1915000
0)
1'
#1916000
b1000101 9
b101101 .
#1920000
0'
#1925000
b1000 "
b1000 0
b10011 6
b10101100 (
b10101100 /
1+
1'
#1930000
0'
#1935000
b1000110 9
0+
1'
#1940000
0'
#1945000
b111 "
b111 0
b1100 5
b10000110 $
b10000110 4
1)
1'
#1950000
0'
#1955000
0)
1'
#1956000
b1000111 9
b101110 .
#1960000
0'
#1965000
b110 "
b110 0
b1101 5
b111011 $
b111011 4
1)
1'
#1970000
0'
#1975000
0)
1'
#1976000
b1001000 9
b101111 .
#1980000
0'
#1985000
b101 "
b101 0
b1110 5
b10001001 $
b10001001 4
1)
1'
#1990000
0'
#1995000
0)
1'
#1996000
b1001001 9
b110000 .
#2000000
0'
#2005000
b110 "
b110 0
b10100 6
b10011 (
b10011 /
1+
1'
#2010000
0'
#2015000
b1001010 9
0+
1'
#2020000
0'
#2025000
b111 "
b111 0
b10101 6
b1010001 (
b1010001 /
1+
1'
#2030000
0'
#2035000
b1001011 9
0+
1'
#2040000
0'
#2045000
b110 "
b110 0
b1111 5
b10011100 $
b10011100 4
1)
1'
#2050000
0'
#2055000
0)
1'
#2056000
b1001100 9
b110001 .
#2060000
0'
#2065000
b101 "
b101 0
b10000 5
b1101001 $
b1101001 4
1)
1'
#2070000
0'
#2075000
0)
1'
#2076000
b1001101 9
b110010 .
#2080000
0'
#2085000
b100 "
b100 0
b10001 5
b111100 $
b111100 4
1)
1'
#2090000
0'
#2095000
0)
1'
#2096000
b1001110 9
b110011 .
#2100000
0'
#2105000
b101 "
b101 0
b10110 6
b11111011 (
b11111011 /
1+
1'
#2110000
0'
#2115000
b1001111 9
0+
1'
#2120000
0'
#2125000
b100 "
b100 0
b10010 5
b10100100 $
b10100100 4
1)
1'
#2130000
0'
#2135000
0)
1'
#2136000
b1010000 9
b110100 .
#2140000
0'
#2145000
b11 "
b11 0
b10011 5
b10101100 $
b10101100 4
1)
1'
#2150000
0'
#2155000
0)
1'
#2156000
b1010001 9
b110101 .
#2160000
0'
#2165000
b100 "
b100 0
b10111 6
b10010100 (
b10010100 /
1+
1'
#2170000
0'
#2175000
b1010010 9
0+
1'
#2180000
0'
#2185000
b11 "
b11 0
b10100 5
b10011 $
b10011 4
1)
1'
#2190000
0'
#2195000
0)
1'
#2196000
b1010011 9
b110110 .
#2200000
0'
#2205000
b10 "
b10 0
b10101 5
b1010001 $
b1010001 4
1)
1'
#2210000
0'
#2215000
0)
1'
#2216000
b1010100 9
b110111 .
#2220000
0'
#2225000
b1 "
b1 0
b10110 5
b11111011 $
b11111011 4
1)
1'
#2230000
0'
#2235000
0)
1'
#2236000
b1010101 9
b111000 .
#2240000
0'
#2245000
1#
b0 "
b0 0
b10111 5
b10010100 $
b10010100 4
1)
1'
#2250000
0'
#2255000
0)
1'
#2256000
b1010111 9
b111001 .
#2260000
0'
#2265000
0#
b1 "
b1 0
b11000 6
b10100010 (
b10100010 /
1+
1'
#2270000
0'
#2275000
b1011000 9
0+
1'
#2280000
0'
#2285000
1#
b0 "
b0 0
b11000 5
b10100010 $
b10100010 4
1)
1'
#2290000
0'
#2295000
0)
1'
#2296000
b1011001 9
b111010 .
#2300000
0'
#2305000
0#
b1 "
b1 0
b11001 6
b11010101 (
b11010101 /
1+
1'
#2310000
0'
#2315000
b1011010 9
0+
1'
#2320000
0'
#2325000
b10 "
b10 0
b11010 6
b11101110 (
b11101110 /
1+
1'
#2330000
0'
#2335000
b1011011 9
0+
1'
#2340000
0'
#2345000
b1 "
b1 0
b11001 5
b11010101 $
b11010101 4
1)
1'
#2350000
0'
#2355000
0)
1'
#2356000
b1011100 9
b111011 .
#2360000
0'
#2365000
1#
b0 "
b0 0
b11010 5
b11101110 $
b11101110 4
1)
1'
#2370000
0'
#2375000
0)
1'
#2376000
b1011110 9
b111100 .
#2380000
0'
#2385000
0#
b1 "
b1 0
b11011 6
b10100111 (
b10100111 /
1+
1'
#2390000
0'
#2395000
b1011111 9
0+
1'
#2400000
0'
#2405000
1#
b0 "
b0 0
b11011 5
b10100111 $
b10100111 4
1)
1'
#2410000
0'
#2415000
0)
1'
#2416000
b1100001 9
b111101 .
#2420000
0'
#2425000
0#
b1 "
b1 0
b11100 6
b11100 (
b11100 /
1+
1'
#2430000
0'
#2435000
b1100010 9
0+
1'
#2440000
0'
#2445000
b10 "
b10 0
b11101 6
b1011100 (
b1011100 /
1+
1'
#2450000
0'
#2455000
b1100011 9
0+
1'
#2460000
0'
#2465000
b11 "
b11 0
b11110 6
b11001001 (
b11001001 /
1+
1'
#2470000
0'
#2475000
b1100100 9
0+
1'
#2480000
0'
#2485000
b10 "
b10 0
b11100 5
b11100 $
b11100 4
1)
1'
#2490000
0'
#2495000
0)
1'
#2496000
b1100101 9
b111110 .
#2500000
0'
#2505000
b1 "
b1 0
b11101 5
b1011100 $
b1011100 4
1)
1'
#2510000
0'
#2515000
0)
1'
#2516000
b1100110 9
b111111 .
#2520000
0'
#2525000
b10 "
b10 0
b11111 6
b100110 (
b100110 /
1+
1'
#2530000
0'
#2535000
b1100111 9
0+
1'
#2540000
0'
#2545000
b11 "
b11 0
b0 6
b110110 (
b110110 /
1+
1'
#2550000
0'
#2555000
b1101000 9
0+
1'
#2560000
0'
#2565000
b10 "
b10 0
b11110 5
b11001001 $
b11001001 4
1)
1'
#2570000
0'
#2575000
0)
1'
#2576000
b1101001 9
b1000000 .
#2580000
0'
#2585000
b11 "
b11 0
b1 6
b11011011 (
b11011011 /
1+
1'
#2590000
0'
#2595000
b1101010 9
0+
1'
#2600000
0'
#2605000
b100 "
b100 0
b10 6
b100011 (
b100011 /
1+
1'
#2610000
0'
#2615000
b1101011 9
0+
1'
#2620000
0'
#2625000
b101 "
b101 0
b11 6
b11111011 (
b11111011 /
1+
1'
#2630000
0'
#2635000
b1101100 9
0+
1'
#2640000
0'
#2645000
b110 "
b110 0
b100 6
b1011010 (
b1011010 /
1+
1'
#2650000
0'
#2655000
b1101101 9
0+
1'
#2660000
0'
#2665000
b111 "
b111 0
b101 6
b10010100 (
b10010100 /
1+
1'
#2670000
0'
#2675000
b1101110 9
0+
1'
#2680000
0'
#2685000
b110 "
b110 0
b11111 5
b100110 $
b100110 4
1)
1'
#2690000
0'
#2695000
0)
1'
#2696000
b1101111 9
b1000001 .
#2700000
0'
#2705000
b101 "
b101 0
b0 5
b110110 $
b110110 4
1)
1'
#2710000
0'
#2715000
0)
1'
#2716000
b1110000 9
b1000010 .
#2720000
0'
#2725000
b100 "
b100 0
b1 5
b11011011 $
b11011011 4
1)
1'
#2730000
0'
#2735000
0)
1'
#2736000
b1110001 9
b1000011 .
#2740000
0'
#2745000
b11 "
b11 0
b10 5
b100011 $
b100011 4
1)
1'
#2750000
0'
#2755000
0)
1'
#2756000
b1110010 9
b1000100 .
#2760000
0'
#2765000
b100 "
b100 0
b110 6
b1111110 (
b1111110 /
1+
1'
#2770000
0'
#2775000
b1110011 9
0+
1'
#2780000
0'
#2785000
b101 "
b101 0
b111 6
b1110 (
b1110 /
1+
1'
#2790000
0'
#2795000
b1110100 9
0+
1'
#2800000
0'
#2805000
b110 "
b110 0
b1000 6
b1101101 (
b1101101 /
1+
1'
#2810000
0'
#2815000
b1110101 9
0+
1'
#2820000
0'
#2825000
b101 "
b101 0
b11 5
b11111011 $
b11111011 4
1)
1'
#2830000
0'
#2835000
0)
1'
#2836000
b1110110 9
b1000101 .
#2840000
0'
#2845000
b110 "
b110 0
b1001 6
b111000 (
b111000 /
1+
1'
#2850000
0'
#2855000
b1110111 9
0+
1'
#2860000
0'
#2865000
b101 "
b101 0
b100 5
b1011010 $
b1011010 4
1)
1'
#2870000
0'
#2875000
0)
1'
#2876000
b1111000 9
b1000110 .
#2880000
0'
#2885000
b110 "
b110 0
b1010 6
b10101111 (
b10101111 /
1+
1'
#2890000
0'
#2895000
b1111001 9
0+
1'
#2900000
0'
#2905000
b111 "
b111 0
b1011 6
b11101010 (
b11101010 /
1+
1'
#2910000
0'
#2915000
b1111010 9
0+
1'
#2920000
0'
#2925000
b110 "
b110 0
b101 5
b10010100 $
b10010100 4
1)
1'
#2930000
0'
#2935000
0)
1'
#2936000
b1111011 9
b1000111 .
#2940000
0'
#2945000
b101 "
b101 0
b110 5
b1111110 $
b1111110 4
1)
1'
#2950000
0'
#2955000
0)
1'
#2956000
b1111100 9
b1001000 .
#2960000
0'
#2965000
b110 "
b110 0
b1100 6
b11001011 (
b11001011 /
1+
1'
#2970000
0'
#2975000
b1111101 9
0+
1'
#2980000
0'
#2985000
b111 "
b111 0
b1101 6
b10010011 (
b10010011 /
1+
1'
#2990000
0'
#2995000
b1111110 9
0+
1'
#3000000
0'
#3005000
b110 "
b110 0
b111 5
b1110 $
b1110 4
1)
1'
#3010000
0'
#3015000
0)
1'
#3016000
b1111111 9
b1001001 .
#3020000
0'
#3025000
b111 "
b111 0
b1110 6
b11101110 (
b11101110 /
1+
1'
#3030000
0'
#3035000
b10000000 9
0+
1'
#3040000
0'
#3045000
b1000 "
b1000 0
b1111 6
b10111100 (
b10111100 /
1+
1'
#3050000
0'
#3055000
b10000001 9
0+
1'
#3060000
0'
#3065000
b1001 "
b1001 0
b10000 6
b1101101 (
b1101101 /
1+
1'
#3070000
0'
#3075000
b10000010 9
0+
1'
#3080000
0'
#3085000
b1000 "
b1000 0
b1000 5
b1101101 $
b1101101 4
1)
1'
#3090000
0'
#3095000
0)
1'
#3096000
b10000011 9
b1001010 .
#3100000
0'
#3105000
b1001 "
b1001 0
b10001 6
b1111101 (
b1111101 /
1+
1'
#3110000
0'
#3115000
b10000100 9
0+
1'
#3120000
0'
#3125000
b1000 "
b1000 0
b1001 5
b111000 $
b111000 4
1)
1'
#3130000
0'
#3135000
0)
1'
#3136000
b10000101 9
b1001011 .
#3140000
0'
#3145000
b1001 "
b1001 0
b10010 6
b1010000 (
b1010000 /
1+
1'
#3150000
0'
#3155000
b10000110 9
0+
1'
#3160000
0'
#3165000
b1010 "
b1010 0
b10011 6
b101000 (
b101000 /
1+
1'
#3170000
0'
#3175000
b10000111 9
0+
1'
#3180000
0'
#3185000
b1011 "
b1011 0
b10100 6
b11010 (
b11010 /
1+
1'
#3190000
0'
#3195000
b10001000 9
0+
1'
#3200000
0'
#3205000
b1010 "
b1010 0
b1010 5
b10101111 $
b10101111 4
1)
1'
#3210000
0'
#3215000
0)
1'
#3216000
b10001001 9
b1001100 .
#3220000
0'
#3225000
b1011 "
b1011 0
b10101 6
b1100010 (
b1100010 /
1+
1'
#3230000
0'
#3235000
b10001010 9
0+
1'
#3240000
0'
#3245000
b1010 "
b1010 0
b1011 5
b11101010 $
b11101010 4
1)
1'
#3250000
0'
#3255000
0)
1'
#3256000
b10001011 9
b1001101 .
#3260000
0'
#3265000
b1011 "
b1011 0
b10110 6
b111001 (
b111001 /
1+
1'
#3270000
0'
#3275000
b10001100 9
0+
1'
#3280000
0'
#3285000
b1010 "
b1010 0
b1100 5
b11001011 $
b11001011 4
1)
1'
#3290000
0'
#3295000
0)
1'
#3296000
b10001101 9
b1001110 .
#3300000
0'
#3305000
b1001 "
b1001 0
b1101 5
b10010011 $
b10010011 4
1)
1'
#3310000
0'
#3315000
0)
1'
#3316000
b10001110 9
b1001111 .
#3320000
0'
#3325000
b1010 "
b1010 0
b10111 6
b1010100 (
b1010100 /
1+
1'
#3330000
0'
#3335000
b10001111 9
0+
1'
#3340000
0'
#3345000
b1011 "
b1011 0
b11000 6
b1010000 (
b1010000 /
1+
1'
#3350000
0'
#3355000
b10010000 9
0+
1'
#3360000
0'
#3365000
b1100 "
b1100 0
b11001 6
b1110011 (
b1110011 /
1+
1'
#3370000
0'
#3375000
b10010001 9
0+
1'
#3380000
0'
#3385000
b1011 "
b1011 0
b1110 5
b11101110 $
b11101110 4
1)
1'
#3390000
0'
#3395000
0)
1'
#3396000
b10010010 9
b1010000 .
#3400000
0'
#3405000
b1100 "
b1100 0
b11010 6
b10010101 (
b10010101 /
1+
1'
#3410000
0'
#3415000
b10010011 9
0+
1'
#3420000
0'
#3425000
b1011 "
b1011 0
b1111 5
b10111100 $
b10111100 4
1)
1'
#3430000
0'
#3435000
0)
1'
#3436000
b10010100 9
b1010001 .
#3440000
0'
#3445000
b1100 "
b1100 0
b11011 6
b11100 (
b11100 /
1+
1'
#3450000
0'
#3455000
b10010101 9
0+
1'
#3460000
0'
#3465000
b1011 "
b1011 0
b10000 5
b1101101 $
b1101101 4
1)
1'
#3470000
0'
#3475000
0)
1'
#3476000
b10010110 9
b1010010 .
#3480000
0'
#3485000
b1100 "
b1100 0
b11100 6
b11100101 (
b11100101 /
1+
1'
#3490000
0'
#3495000
b10010111 9
0+
1'
#3500000
0'
#3505000
b1101 "
b1101 0
b11101 6
b10110101 (
b10110101 /
1+
1'
#3510000
0'
#3515000
b10011000 9
0+
1'
#3520000
0'
#3525000
b1100 "
b1100 0
b10001 5
b1111101 $
b1111101 4
1)
1'
#3530000
0'
#3535000
0)
1'
#3536000
b10011001 9
b1010011 .
#3540000
0'
#3545000
b1101 "
b1101 0
b11110 6
b11011101 (
b11011101 /
1+
1'
#3550000
0'
#3555000
b10011010 9
0+
1'
#3560000
0'
#3565000
b1110 "
b1110 0
b11111 6
b11011100 (
b11011100 /
1+
1'
#3570000
0'
#3575000
b10011011 9
0+
1'
#3580000
0'
#3585000
b1111 "
b1111 0
b0 6
b1011010 (
b1011010 /
1+
1'
#3590000
0'
#3595000
b10011100 9
0+
1'
#3600000
0'
#3605000
1!
b10000 "
b10000 0
b1 6
b1000011 (
b1000011 /
1+
1'
#3610000
0'
#3615000
b10011101 9
0+
1'
#3620000
0'
